{
  "name": "contacts",
  "plural": "Contacts",
  "base": "PersistedModel",
  "idInjection": true,
  "options": {
    "validateUpsert": true
  },
  "properties": {
    "id": {
      "type": "number",
      "required": true,
      "default": 0
    },
    "user_id": {
      "type": "string",
      "required": true,
      "default": " "
    },
    "user_id_contact": {
      "type": "string",
      "required": true,
      "default": " "
    },
    "description": {
      "type": "string",
      "default": " "
    },
    "status": {
      "type": "string",
      "default": " "
    },
    "message": {
      "type": "string",
      "default": " "
    }
  },
  "validations": [],
  "relations": {},
  "acls": [],
  "methods": {}
}
